dump.vcd
$version Generated by VerilatedVcd $end
$timescale 1ps $end
 $scope module  $end
  $var wire 1 # reset $end
  $var wire 1 $ SDO $end
  $var wire 1 % clk $end
  $var wire 1 & SPC $end
  $var wire 1 ' CS $end
  $var wire 1 ( SDI $end
  $scope module curr_data $end
   $var wire 16 ) pitch [15:0] $end
   $var wire 16 * roll [15:0] $end
   $var wire 16 + yaw [15:0] $end
   $var wire 16 , x [15:0] $end
   $var wire 16 - y [15:0] $end
   $var wire 16 . z [15:0] $end
  $upscope $end
  $scope module imu $end
   $var wire 1 / reset $end
   $var wire 1 0 SDO $end
   $var wire 1 1 clk $end
   $var wire 1 2 SPC $end
   $var wire 1 3 CS $end
   $var wire 1 4 SDI $end
   $scope module curr_data $end
    $var wire 16 5 pitch [15:0] $end
    $var wire 16 6 roll [15:0] $end
    $var wire 16 7 yaw [15:0] $end
    $var wire 16 8 x [15:0] $end
    $var wire 16 9 y [15:0] $end
    $var wire 16 : z [15:0] $end
   $upscope $end
   $var wire 5 ; curr_state [4:0] $end
   $var wire 5 < next_state [4:0] $end
   $scope module next_data $end
    $var wire 16 = pitch [15:0] $end
    $var wire 16 > roll [15:0] $end
    $var wire 16 ? yaw [15:0] $end
    $var wire 16 @ x [15:0] $end
    $var wire 16 A y [15:0] $end
    $var wire 16 B z [15:0] $end
   $upscope $end
   $var wire 8 C addr [7:0] $end
   $var wire 8 D wdata [7:0] $end
   $var wire 8 E rdata [7:0] $end
   $var wire 1 F read $end
   $var wire 1 G enable $end
   $var wire 1 H done $end
   $var wire 32 \ WAIT_CYCLES [31:0] $end
   $var wire 12 I wait_idx [11:0] $end
   $var wire 1 J clear $end
   $scope module spi_internal $end
    $var wire 8 K addr [7:0] $end
    $var wire 8 L wdata [7:0] $end
    $var wire 1 M read $end
    $var wire 1 N clk $end
    $var wire 1 O enable $end
    $var wire 1 P reset $end
    $var wire 1 Q SDO $end
    $var wire 1 R SPC $end
    $var wire 1 S CS $end
    $var wire 1 T SDI $end
    $var wire 8 U rdata [7:0] $end
    $var wire 1 V done $end
    $var wire 6 W curr_state [5:0] $end
    $var wire 6 X next_state [5:0] $end
   $upscope $end
   $scope module wait_time $end
    $var wire 32 ] WIDTH [31:0] $end
    $var wire 1 Y clock $end
    $var wire 1 Z clear $end
    $var wire 12 [ Q [11:0] $end
   $upscope $end
  $upscope $end
 $upscope $end
$enddefinitions $end


#0
1#
0$
1%
1&
1'
0(
b0000000000000000 )
b0000000000000000 *
b0000000000000000 +
b0000000000000000 ,
b0000000000000000 -
b0000000000000000 .
1/
00
11
12
13
04
b0000000000000000 5
b0000000000000000 6
b0000000000000000 7
b0000000000000000 8
b0000000000000000 9
b0000000000000000 :
b00000 ;
b00000 <
b0000000000000000 =
b0000000000000000 >
b0000000000000000 ?
b0000000000000000 @
b0000000000000000 A
b0000000000000000 B
b00011000 C
b11100010 D
b00000000 E
0F
1G
0H
b000000000001 I
0J
b00011000 K
b11100010 L
0M
1N
1O
1P
0Q
1R
1S
0T
b00000000 U
0V
b000000 W
b000001 X
1Y
0Z
b000000000001 [
b00000000000000000000101110111011 \
b00000000000000000000000000001100 ]
#10000
0%
01
0N
0Y
#20000
0#
1%
0'
0/
11
03
b000000000010 I
1N
0P
0S
b000001 W
b000010 X
1Y
b000000000010 [
#30000
0%
01
0N
0Y
#40000
1%
0&
11
02
b000000000011 I
1N
0R
b000010 W
b000011 X
1Y
b000000000011 [
#50000
0%
01
0N
0Y
#60000
1%
1&
11
12
b000000000100 I
1N
1R
b000011 W
b000100 X
1Y
b000000000100 [
#70000
0%
01
0N
0Y
#80000
1%
0&
11
02
b000000000101 I
1N
0R
b000100 W
b000101 X
1Y
b000000000101 [
#90000
0%
01
0N
0Y
#100000
1%
1&
11
12
b000000000110 I
1N
1R
b000101 W
b000110 X
1Y
b000000000110 [
#110000
0%
01
0N
0Y
#120000
1%
0&
11
02
b000000000111 I
1N
0R
b000110 W
b000111 X
1Y
b000000000111 [
#130000
0%
01
0N
0Y
#140000
1%
1&
11
12
b000000001000 I
1N
1R
b000111 W
b001000 X
1Y
b000000001000 [
#150000
0%
01
0N
0Y
#160000
1%
0&
1(
11
02
14
b000000001001 I
1N
0R
1T
b001000 W
b001001 X
1Y
b000000001001 [
#170000
0%
01
0N
0Y
#180000
1%
1&
11
12
b000000001010 I
1N
1R
b001001 W
b001010 X
1Y
b000000001010 [
#190000
0%
01
0N
0Y
#200000
1%
0&
11
02
b000000001011 I
1N
0R
b001010 W
b001011 X
1Y
b000000001011 [
#210000
0%
01
0N
0Y
#220000
1%
1&
11
12
b000000001100 I
1N
1R
b001011 W
b001100 X
1Y
b000000001100 [
#230000
0%
01
0N
0Y
#240000
1%
0&
0(
11
02
04
b000000001101 I
1N
0R
0T
b001100 W
b001101 X
1Y
b000000001101 [
#250000
0%
01
0N
0Y
#260000
1%
1&
11
12
b000000001110 I
1N
1R
b001101 W
b001110 X
1Y
b000000001110 [
#270000
0%
01
0N
0Y
#280000
1%
0&
11
02
b000000001111 I
1N
0R
b001110 W
b001111 X
1Y
b000000001111 [
#290000
0%
01
0N
0Y
#300000
1%
1&
11
12
b000000010000 I
1N
1R
b001111 W
b010000 X
1Y
b000000010000 [
#310000
0%
01
0N
0Y
#320000
1%
0&
11
02
b000000010001 I
1N
0R
b010000 W
b010001 X
1Y
b000000010001 [
#330000
0%
01
0N
0Y
#340000
1%
1&
11
12
b000000010010 I
1N
1R
b010001 W
b010010 X
1Y
b000000010010 [
#350000
0%
01
0N
0Y
#360000
1%
0&
1(
11
02
14
b000000010011 I
1N
0R
1T
b010010 W
b010011 X
1Y
b000000010011 [
#370000
0%
01
0N
0Y
#380000
1%
1&
11
12
b000000010100 I
1N
1R
b010011 W
b010100 X
1Y
b000000010100 [
#390000
0%
01
0N
0Y
#400000
1%
0&
11
02
b000000010101 I
1N
0R
b010100 W
b010101 X
1Y
b000000010101 [
#410000
0%
01
0N
0Y
#420000
1%
1&
11
12
b000000010110 I
1N
1R
b010101 W
b010110 X
1Y
b000000010110 [
#430000
0%
01
0N
0Y
#440000
1%
0&
11
02
b000000010111 I
1N
0R
b010110 W
b010111 X
1Y
b000000010111 [
#450000
0%
01
0N
0Y
#460000
1%
1&
11
12
b000000011000 I
1N
1R
b010111 W
b011000 X
1Y
b000000011000 [
#470000
0%
01
0N
0Y
#480000
1%
0&
0(
11
02
04
b000000011001 I
1N
0R
0T
b011000 W
b011001 X
1Y
b000000011001 [
#490000
0%
01
0N
0Y
#500000
1%
1&
11
12
b000000011010 I
1N
1R
b011001 W
b011010 X
1Y
b000000011010 [
#510000
0%
01
0N
0Y
#520000
1%
0&
11
02
b000000011011 I
1N
0R
b011010 W
b011011 X
1Y
b000000011011 [
#530000
0%
01
0N
0Y
#540000
1%
1&
11
12
b000000011100 I
1N
1R
b011011 W
b011100 X
1Y
b000000011100 [
#550000
0%
01
0N
0Y
#560000
1%
0&
11
02
b000000011101 I
1N
0R
b011100 W
b011101 X
1Y
b000000011101 [
#570000
0%
01
0N
0Y
#580000
1%
1&
11
12
b000000011110 I
1N
1R
b011101 W
b011110 X
1Y
b000000011110 [
#590000
0%
01
0N
0Y
#600000
1%
0&
1(
11
02
14
b000000011111 I
1N
0R
1T
b011110 W
b011111 X
1Y
b000000011111 [
#610000
0%
01
0N
0Y
#620000
1%
1&
11
12
b000000100000 I
1N
1R
b011111 W
b100000 X
1Y
b000000100000 [
#630000
0%
01
0N
0Y
#640000
1%
0&
0(
11
02
04
b000000100001 I
1N
0R
0T
b100000 W
b100001 X
1Y
b000000100001 [
#650000
0%
01
0N
0Y
#660000
1%
1&
1'
11
12
13
b00001 <
1H
b000000100010 I
1N
1R
1S
1V
b100001 W
b000000 X
1Y
b000000100010 [
#670000
0%
01
0N
0Y
#680000
1%
11
b00001 ;
0H
b000000100011 I
1N
0V
b000000 W
b000001 X
1Y
b000000100011 [
#690000
0%
01
0N
0Y
#700000
1%
0'
11
03
b00010011 C
b00000100 D
b000000100100 I
b00010011 K
b00000100 L
1N
0S
b000001 W
b000010 X
1Y
b000000100100 [
#710000
0%
01
0N
0Y
#720000
1%
0&
11
02
b000000100101 I
1N
0R
b000010 W
b000011 X
1Y
b000000100101 [
#730000
0%
01
0N
0Y
#740000
1%
1&
11
12
b000000100110 I
1N
1R
b000011 W
b000100 X
1Y
b000000100110 [
#750000
0%
01
0N
0Y
#760000
1%
0&
11
02
b000000100111 I
1N
0R
b000100 W
b000101 X
1Y
b000000100111 [
#770000
0%
01
0N
0Y
#780000
1%
1&
11
12
b000000101000 I
1N
1R
b000101 W
b000110 X
1Y
b000000101000 [
#790000
0%
01
0N
0Y
#800000
1%
0&
11
02
b000000101001 I
1N
0R
b000110 W
b000111 X
1Y
b000000101001 [
#810000
0%
01
0N
0Y
#820000
1%
1&
11
12
b000000101010 I
1N
1R
b000111 W
b001000 X
1Y
b000000101010 [
#830000
0%
01
0N
0Y
#840000
1%
0&
1(
11
02
14
b000000101011 I
1N
0R
1T
b001000 W
b001001 X
1Y
b000000101011 [
#850000
0%
01
0N
0Y
#860000
1%
1&
11
12
b000000101100 I
1N
1R
b001001 W
b001010 X
1Y
b000000101100 [
#870000
0%
01
0N
0Y
#880000
1%
0&
0(
11
02
04
b000000101101 I
1N
0R
0T
b001010 W
b001011 X
1Y
b000000101101 [
#890000
0%
01
0N
0Y
#900000
1%
1&
11
12
b000000101110 I
1N
1R
b001011 W
b001100 X
1Y
b000000101110 [
#910000
0%
01
0N
0Y
#920000
1%
0&
11
02
b000000101111 I
1N
0R
b001100 W
b001101 X
1Y
b000000101111 [
#930000
0%
01
0N
0Y
#940000
1%
1&
11
12
b000000110000 I
1N
1R
b001101 W
b001110 X
1Y
b000000110000 [
#950000
0%
01
0N
0Y
#960000
1%
0&
1(
11
02
14
b000000110001 I
1N
0R
1T
b001110 W
b001111 X
1Y
b000000110001 [
#970000
0%
01
0N
0Y
#980000
1%
1&
11
12
b000000110010 I
1N
1R
b001111 W
b010000 X
1Y
b000000110010 [
#990000
0%
01
0N
0Y
#1000000
1%
0&
11
02
b000000110011 I
1N
0R
b010000 W
b010001 X
1Y
b000000110011 [
#1010000
0%
01
0N
0Y
#1020000
1%
1&
11
12
b000000110100 I
1N
1R
b010001 W
b010010 X
1Y
b000000110100 [
#1030000
0%
01
0N
0Y
#1040000
1%
0&
0(
11
02
04
b000000110101 I
1N
0R
0T
b010010 W
b010011 X
1Y
b000000110101 [
#1050000
0%
01
0N
0Y
#1060000
1%
1&
11
12
b000000110110 I
1N
1R
b010011 W
b010100 X
1Y
b000000110110 [
#1070000
0%
01
0N
0Y
#1080000
1%
0&
11
02
b000000110111 I
1N
0R
b010100 W
b010101 X
1Y
b000000110111 [
#1090000
0%
01
0N
0Y
#1100000
1%
1&
11
12
b000000111000 I
1N
1R
b010101 W
b010110 X
1Y
b000000111000 [
#1110000
0%
01
0N
0Y
#1120000
1%
0&
11
02
b000000111001 I
1N
0R
b010110 W
b010111 X
1Y
b000000111001 [
#1130000
0%
01
0N
0Y
#1140000
1%
1&
11
12
b000000111010 I
1N
1R
b010111 W
b011000 X
1Y
b000000111010 [
#1150000
0%
01
0N
0Y
#1160000
1%
0&
11
02
b000000111011 I
1N
0R
b011000 W
b011001 X
1Y
b000000111011 [
#1170000
0%
01
0N
0Y
#1180000
1%
1&
11
12
b000000111100 I
1N
1R
b011001 W
b011010 X
1Y
b000000111100 [
#1190000
0%
01
0N
0Y
#1200000
1%
0&
11
02
b000000111101 I
1N
0R
b011010 W
b011011 X
1Y
b000000111101 [
#1210000
0%
01
0N
0Y
#1220000
1%
1&
11
12
b000000111110 I
1N
1R
b011011 W
b011100 X
1Y
b000000111110 [
#1230000
0%
01
0N
0Y
#1240000
1%
0&
1(
11
02
14
b000000111111 I
1N
0R
1T
b011100 W
b011101 X
1Y
b000000111111 [
#1250000
0%
01
0N
0Y
#1260000
1%
1&
11
12
b000001000000 I
1N
1R
b011101 W
b011110 X
1Y
b000001000000 [
#1270000
0%
01
0N
0Y
#1280000
1%
0&
0(
11
02
04
b000001000001 I
1N
0R
0T
b011110 W
b011111 X
1Y
b000001000001 [
#1290000
0%
01
0N
0Y
#1300000
1%
1&
11
12
b000001000010 I
1N
1R
b011111 W
b100000 X
1Y
b000001000010 [
#1310000
0%
01
0N
0Y
#1320000
1%
0&
11
02
b000001000011 I
1N
0R
b100000 W
b100001 X
1Y
b000001000011 [
#1330000
0%
01
0N
0Y
#1340000
1%
1&
1'
11
12
13
b00010 <
1H
b000001000100 I
1N
1R
1S
1V
b100001 W
b000000 X
1Y
b000001000100 [
#1350000
0%
01
0N
0Y
#1360000
1%
11
b00010 ;
0H
b000001000101 I
1N
0V
b000000 W
b000001 X
1Y
b000001000101 [
#1370000
0%
01
0N
0Y
#1380000
1%
0'
11
03
b00010001 C
b10100000 D
b000001000110 I
b00010001 K
b10100000 L
1N
0S
b000001 W
b000010 X
1Y
b000001000110 [
#1390000
0%
01
0N
0Y
#1400000
1%
0&
11
02
b000001000111 I
1N
0R
b000010 W
b000011 X
1Y
b000001000111 [
#1410000
0%
01
0N
0Y
#1420000
1%
1&
11
12
b000001001000 I
1N
1R
b000011 W
b000100 X
1Y
b000001001000 [
#1430000
0%
01
0N
0Y
#1440000
1%
0&
11
02
b000001001001 I
1N
0R
b000100 W
b000101 X
1Y
b000001001001 [
#1450000
0%
01
0N
0Y
#1460000
1%
1&
11
12
b000001001010 I
1N
1R
b000101 W
b000110 X
1Y
b000001001010 [
#1470000
0%
01
0N
0Y
#1480000
1%
0&
11
02
b000001001011 I
1N
0R
b000110 W
b000111 X
1Y
b000001001011 [
#1490000
0%
01
0N
0Y
#1500000
1%
1&
11
12
b000001001100 I
1N
1R
b000111 W
b001000 X
1Y
b000001001100 [
#1510000
0%
01
0N
0Y
#1520000
1%
0&
1(
11
02
14
b000001001101 I
1N
0R
1T
b001000 W
b001001 X
1Y
b000001001101 [
#1530000
0%
01
0N
0Y
#1540000
1%
1&
11
12
b000001001110 I
1N
1R
b001001 W
b001010 X
1Y
b000001001110 [
#1550000
0%
01
0N
0Y
#1560000
1%
0&
0(
11
02
04
b000001001111 I
1N
0R
0T
b001010 W
b001011 X
1Y
b000001001111 [
#1570000
0%
01
0N
0Y
#1580000
1%
1&
11
12
b000001010000 I
1N
1R
b001011 W
b001100 X
1Y
b000001010000 [
#1590000
0%
01
0N
0Y
#1600000
1%
0&
11
02
b000001010001 I
1N
0R
b001100 W
b001101 X
1Y
b000001010001 [
#1610000
0%
01
0N
0Y
#1620000
1%
1&
11
12
b000001010010 I
1N
1R
b001101 W
b001110 X
1Y
b000001010010 [
#1630000
0%
01
0N
0Y
#1640000
1%
0&
11
02
b000001010011 I
1N
0R
b001110 W
b001111 X
1Y
b000001010011 [
#1650000
0%
01
0N
0Y
#1660000
1%
1&
11
12
b000001010100 I
1N
1R
b001111 W
b010000 X
1Y
b000001010100 [
#1670000
0%
01
0N
0Y
#1680000
1%
0&
1(
11
02
14
b000001010101 I
1N
0R
1T
b010000 W
b010001 X
1Y
b000001010101 [
#1690000
0%
01
0N
0Y
#1700000
1%
1&
11
12
b000001010110 I
1N
1R
b010001 W
b010010 X
1Y
b000001010110 [
#1710000
0%
01
0N
0Y
#1720000
1%
0&
11
02
b000001010111 I
1N
0R
b010010 W
b010011 X
1Y
b000001010111 [
#1730000
0%
01
0N
0Y
#1740000
1%
1&
11
12
b000001011000 I
1N
1R
b010011 W
b010100 X
1Y
b000001011000 [
#1750000
0%
01
0N
0Y
#1760000
1%
0&
0(
11
02
04
b000001011001 I
1N
0R
0T
b010100 W
b010101 X
1Y
b000001011001 [
#1770000
0%
01
0N
0Y
#1780000
1%
1&
11
12
b000001011010 I
1N
1R
b010101 W
b010110 X
1Y
b000001011010 [
#1790000
0%
01
0N
0Y
#1800000
1%
0&
1(
11
02
14
b000001011011 I
1N
0R
1T
b010110 W
b010111 X
1Y
b000001011011 [
#1810000
0%
01
0N
0Y
#1820000
1%
1&
11
12
b000001011100 I
1N
1R
b010111 W
b011000 X
1Y
b000001011100 [
#1830000
0%
01
0N
0Y
#1840000
1%
0&
0(
11
02
04
b000001011101 I
1N
0R
0T
b011000 W
b011001 X
1Y
b000001011101 [
#1850000
0%
01
0N
0Y
#1860000
1%
1&
11
12
b000001011110 I
1N
1R
b011001 W
b011010 X
1Y
b000001011110 [
#1870000
0%
01
0N
0Y
#1880000
1%
0&
11
02
b000001011111 I
1N
0R
b011010 W
b011011 X
1Y
b000001011111 [
#1890000
0%
01
0N
0Y
#1900000
1%
1&
11
12
b000001100000 I
1N
1R
b011011 W
b011100 X
1Y
b000001100000 [
#1910000
0%
01
0N
0Y
#1920000
1%
0&
11
02
b000001100001 I
1N
0R
b011100 W
b011101 X
1Y
b000001100001 [
#1930000
0%
01
0N
0Y
#1940000
1%
1&
11
12
b000001100010 I
1N
1R
b011101 W
b011110 X
1Y
b000001100010 [
#1950000
0%
01
0N
0Y
#1960000
1%
0&
11
02
b000001100011 I
1N
0R
b011110 W
b011111 X
1Y
b000001100011 [
#1970000
0%
01
0N
0Y
#1980000
1%
1&
11
12
b000001100100 I
1N
1R
b011111 W
b100000 X
1Y
b000001100100 [
#1990000
0%
01
0N
0Y
#2000000
1%
0&
11
02
b000001100101 I
1N
0R
b100000 W
b100001 X
1Y
b000001100101 [
#2010000
0%
01
0N
0Y
#2020000
1%
1&
1'
11
12
13
b00011 <
1H
b000001100110 I
1N
1R
1S
1V
b100001 W
b000000 X
1Y
b000001100110 [
#2030000
0%
01
0N
0Y
#2040000
1%
11
b00011 ;
0H
b000001100111 I
1J
1N
0V
b000000 W
b000001 X
1Y
1Z
b000001100111 [
#2050000
0%
01
0N
0Y
#2060000
1%
0'
11
03
b00010000 C
b000000000000 I
b00010000 K
1N
0S
b000001 W
b000010 X
1Y
b000000000000 [
#2070000
0%
01
0N
0Y
#2080000
1%
0&
11
02
1N
0R
b000010 W
b000011 X
1Y
#2090000
0%
01
0N
0Y
#2100000
1%
1&
11
12
1N
1R
b000011 W
b000100 X
1Y
#2110000
0%
01
0N
0Y
#2120000
1%
0&
11
02
1N
0R
b000100 W
b000101 X
1Y
#2130000
0%
01
0N
0Y
#2140000
1%
1&
11
12
1N
1R
b000101 W
b000110 X
1Y
#2150000
0%
01
0N
0Y
#2160000
1%
0&
11
02
1N
0R
b000110 W
b000111 X
1Y
#2170000
0%
01
0N
0Y
#2180000
1%
1&
11
12
1N
1R
b000111 W
b001000 X
1Y
#2190000
0%
01
0N
0Y
#2200000
1%
0&
1(
11
02
14
1N
0R
1T
b001000 W
b001001 X
1Y
#2210000
0%
01
0N
0Y
#2220000
1%
1&
11
12
1N
1R
b001001 W
b001010 X
1Y
#2230000
0%
01
0N
0Y
#2240000
1%
0&
0(
11
02
04
1N
0R
0T
b001010 W
b001011 X
1Y
#2250000
0%
01
0N
0Y
#2260000
1%
1&
11
12
1N
1R
b001011 W
b001100 X
1Y
#2270000
0%
01
0N
0Y
#2280000
1%
0&
11
02
1N
0R
b001100 W
b001101 X
1Y
#2290000
0%
01
0N
0Y
#2300000
1%
1&
11
12
1N
1R
b001101 W
b001110 X
1Y
#2310000
0%
01
0N
0Y
#2320000
1%
0&
11
02
1N
0R
b001110 W
b001111 X
1Y
#2330000
0%
01
0N
0Y
#2340000
1%
1&
11
12
1N
1R
b001111 W
b010000 X
1Y
#2350000
0%
01
0N
0Y
#2360000
1%
0&
11
02
1N
0R
b010000 W
b010001 X
1Y
#2370000
0%
01
0N
0Y
#2380000
1%
1&
11
12
1N
1R
b010001 W
b010010 X
1Y
#2390000
0%
01
0N
0Y
#2400000
1%
0&
1(
11
02
14
1N
0R
1T
b010010 W
b010011 X
1Y
#2410000
0%
01
0N
0Y
#2420000
1%
1&
11
12
1N
1R
b010011 W
b010100 X
1Y
#2430000
0%
01
0N
0Y
#2440000
1%
0&
0(
11
02
04
1N
0R
0T
b010100 W
b010101 X
1Y
#2450000
0%
01
0N
0Y
#2460000
1%
1&
11
12
1N
1R
b010101 W
b010110 X
1Y
#2470000
0%
01
0N
0Y
#2480000
1%
0&
1(
11
02
14
1N
0R
1T
b010110 W
b010111 X
1Y
#2490000
0%
01
0N
0Y
#2500000
1%
1&
11
12
1N
1R
b010111 W
b011000 X
1Y
#2510000
0%
01
0N
0Y
#2520000
1%
0&
0(
11
02
04
1N
0R
0T
b011000 W
b011001 X
1Y
#2530000
0%
01
0N
0Y
#2540000
1%
1&
11
12
1N
1R
b011001 W
b011010 X
1Y
#2550000
0%
01
0N
0Y
#2560000
1%
0&
11
02
1N
0R
b011010 W
b011011 X
1Y
#2570000
0%
01
0N
0Y
#2580000
1%
1&
11
12
1N
1R
b011011 W
b011100 X
1Y
#2590000
0%
01
0N
0Y
#2600000
1%
0&
11
02
1N
0R
b011100 W
b011101 X
1Y
#2610000
0%
01
0N
0Y
#2620000
1%
1&
11
12
1N
1R
b011101 W
b011110 X
1Y
#2630000
0%
01
0N
0Y
#2640000
1%
0&
11
02
1N
0R
b011110 W
b011111 X
1Y
#2650000
0%
01
0N
0Y
#2660000
1%
1&
11
12
1N
1R
b011111 W
b100000 X
1Y
#2670000
0%
01
0N
0Y
#2680000
1%
0&
11
02
1N
0R
b100000 W
b100001 X
1Y
#2690000
0%
01
0N
0Y
#2700000
1%
1&
1'
11
12
13
b00100 <
1H
1N
1R
1S
1V
b100001 W
b000000 X
1Y
#2710000
0%
01
0N
0Y
#2720000
1%
11
b00100 ;
0H
0J
1N
0V
b000000 W
b000001 X
1Y
0Z
#2730000
0%
01
0N
0Y
#2740000
1%
0'
11
03
1F
0G
b000000000001 I
1M
1N
0O
0S
b000001 W
b000010 X
1Y
b000000000001 [
#2750000
0%
01
0N
0Y
#2760000
1%
0&
1(
11
02
14
b000000000010 I
1N
0R
1T
b000010 W
b000011 X
1Y
b000000000010 [
#2770000
0%
01
0N
0Y
#2780000
1%
1&
11
12
b000000000011 I
1N
1R
b000011 W
b000100 X
1Y
b000000000011 [
#2790000
0%
01
0N
0Y
#2800000
1%
0&
0(
11
02
04
b000000000100 I
1N
0R
0T
b000100 W
b000101 X
1Y
b000000000100 [
#2810000
0%
01
0N
0Y
#2820000
1%
1&
11
12
b000000000101 I
1N
1R
b000101 W
b000110 X
1Y
b000000000101 [
#2830000
0%
01
0N
0Y
#2840000
1%
0&
11
02
b000000000110 I
1N
0R
b000110 W
b000111 X
1Y
b000000000110 [
#2850000
0%
01
0N
0Y
#2860000
1%
1&
11
12
b000000000111 I
1N
1R
b000111 W
b001000 X
1Y
b000000000111 [
#2870000
0%
01
0N
0Y
#2880000
1%
0&
1(
11
02
14
b000000001000 I
1N
0R
1T
b001000 W
b001001 X
1Y
b000000001000 [
#2890000
0%
01
0N
0Y
#2900000
1%
1&
11
12
b000000001001 I
1N
1R
b001001 W
b001010 X
1Y
b000000001001 [
#2910000
0%
01
0N
0Y
#2920000
1%
0&
0(
11
02
04
b000000001010 I
1N
0R
0T
b001010 W
b001011 X
1Y
b000000001010 [
#2930000
0%
01
0N
0Y
#2940000
1%
1&
11
12
b000000001011 I
1N
1R
b001011 W
b001100 X
1Y
b000000001011 [
#2950000
0%
01
0N
0Y
#2960000
1%
0&
11
02
b000000001100 I
1N
0R
b001100 W
b001101 X
1Y
b000000001100 [
#2970000
0%
01
0N
0Y
#2980000
1%
1&
11
12
b000000001101 I
1N
1R
b001101 W
b001110 X
1Y
b000000001101 [
#2990000
0%
01
0N
0Y
#3000000
1%
0&
11
02
b000000001110 I
1N
0R
b001110 W
b001111 X
1Y
b000000001110 [
#3010000
0%
01
0N
0Y
#3020000
1%
1&
11
12
b000000001111 I
1N
1R
b001111 W
b010000 X
1Y
b000000001111 [
#3030000
0%
01
0N
0Y
#3040000
1%
0&
11
02
b000000010000 I
1N
0R
b010000 W
b010001 X
1Y
b000000010000 [
#3050000
0%
01
0N
0Y
#3060000
1%
1&
11
12
b000000010001 I
1N
1R
b010001 W
b010010 X
1Y
b000000010001 [
#3070000
0%
01
0N
0Y
#3080000
1%
0&
11
02
b000000010010 I
1N
0R
b010010 W
b010011 X
1Y
b000000010010 [
#3090000
0%
01
0N
0Y
#3100000
1%
1&
11
12
b000000010011 I
1N
1R
b010011 W
b010100 X
1Y
b000000010011 [
#3110000
0%
01
0N
0Y
#3120000
1%
0&
11
02
b000000010100 I
1N
0R
b010100 W
b010101 X
1Y
b000000010100 [
#3130000
0%
01
0N
0Y
#3140000
1%
1&
11
12
b000000010101 I
1N
1R
b010101 W
b010110 X
1Y
b000000010101 [
#3150000
0%
01
0N
0Y
#3160000
1%
0&
11
02
b000000010110 I
1N
0R
b010110 W
b010111 X
1Y
b000000010110 [
#3170000
0%
01
0N
0Y
#3180000
1%
1&
11
12
b000000010111 I
1N
1R
b010111 W
b011000 X
1Y
b000000010111 [
#3190000
0%
01
0N
0Y
#3200000
1%
0&
11
02
b000000011000 I
1N
0R
b011000 W
b011001 X
1Y
b000000011000 [
#3210000
0%
01
0N
0Y
#3220000
1%
1&
11
12
b000000011001 I
1N
1R
b011001 W
b011010 X
1Y
b000000011001 [
#3230000
0%
01
0N
0Y
#3240000
1%
0&
11
02
b000000011010 I
1N
0R
b011010 W
b011011 X
1Y
b000000011010 [
#3250000
0%
01
0N
0Y
#3260000
1%
1&
11
12
b000000011011 I
1N
1R
b011011 W
b011100 X
1Y
b000000011011 [
#3270000
0%
01
0N
0Y
#3280000
1%
0&
11
02
b000000011100 I
1N
0R
b011100 W
b011101 X
1Y
b000000011100 [
#3290000
0%
01
0N
0Y
#3300000
1%
1&
11
12
b000000011101 I
1N
1R
b011101 W
b011110 X
1Y
b000000011101 [
#3310000
0%
01
0N
0Y
#3320000
1%
0&
11
02
b000000011110 I
1N
0R
b011110 W
b011111 X
1Y
b000000011110 [
#3330000
0%
01
0N
0Y
#3340000
1%
1&
11
12
b000000011111 I
1N
1R
b011111 W
b100000 X
1Y
b000000011111 [
#3350000
0%
01
0N
0Y
#3360000
1%
0&
11
02
b000000100000 I
1N
0R
b100000 W
b100001 X
1Y
b000000100000 [
#3370000
0%
01
0N
0Y
#3380000
1%
1&
1'
11
12
13
1H
b000000100001 I
1N
1R
1S
1V
b100001 W
b000000 X
1Y
b000000100001 [
#3390000
0%
01
0N
0Y
#3400000
1%
11
0H
b000000100010 I
1N
0V
b000000 W
1Y
b000000100010 [
#3410000
0%
01
0N
0Y
#3420000
1%
11
b000000100011 I
1N
1Y
b000000100011 [
#3430000
0%
01
0N
0Y
#3440000
1%
11
b000000100100 I
1N
1Y
b000000100100 [
#3450000
0%
01
0N
0Y
#3460000
1%
11
b000000100101 I
1N
1Y
b000000100101 [
#3470000
0%
01
0N
0Y
#3480000
1%
11
b000000100110 I
1N
1Y
b000000100110 [
#3490000
0%
01
0N
0Y
#3500000
1%
11
b000000100111 I
1N
1Y
b000000100111 [
#3510000
0%
01
0N
0Y
#3520000
1%
11
b000000101000 I
1N
1Y
b000000101000 [
#3530000
0%
01
0N
0Y
#3540000
1%
11
b000000101001 I
1N
1Y
b000000101001 [
#3550000
0%
01
0N
0Y
#3560000
1%
11
b000000101010 I
1N
1Y
b000000101010 [
#3570000
0%
01
0N
0Y
#3580000
1%
11
b000000101011 I
1N
1Y
b000000101011 [
#3590000
0%
01
0N
0Y
#3600000
1%
11
b000000101100 I
1N
1Y
b000000101100 [
#3610000
0%
01
0N
0Y
#3620000
1%
11
b000000101101 I
1N
1Y
b000000101101 [
#3630000
0%
01
0N
0Y
#3640000
1%
11
b000000101110 I
1N
1Y
b000000101110 [
#3650000
0%
01
0N
0Y
#3660000
1%
11
b000000101111 I
1N
1Y
b000000101111 [
#3670000
0%
01
0N
0Y
#3680000
1%
11
b000000110000 I
1N
1Y
b000000110000 [
#3690000
0%
01
0N
0Y
#3700000
1%
11
b000000110001 I
1N
1Y
b000000110001 [
#3710000
0%
01
0N
0Y
#3720000
1%
11
b000000110010 I
1N
1Y
b000000110010 [
#3730000
0%
01
0N
0Y
#3740000
1%
11
b000000110011 I
1N
1Y
b000000110011 [
#3750000
0%
01
0N
0Y
#3760000
1%
11
b000000110100 I
1N
1Y
b000000110100 [
#3770000
0%
01
0N
0Y
#3780000
1%
11
b000000110101 I
1N
1Y
b000000110101 [
#3790000
0%
01
0N
0Y
#3800000
1%
11
b000000110110 I
1N
1Y
b000000110110 [
#3810000
0%
01
0N
0Y
#3820000
1%
11
b000000110111 I
1N
1Y
b000000110111 [
#3830000
0%
01
0N
0Y
#3840000
1%
11
b000000111000 I
1N
1Y
b000000111000 [
#3850000
0%
01
0N
0Y
#3860000
1%
11
b000000111001 I
1N
1Y
b000000111001 [
#3870000
0%
01
0N
0Y
#3880000
1%
11
b000000111010 I
1N
1Y
b000000111010 [
#3890000
0%
01
0N
0Y
#3900000
1%
11
b000000111011 I
1N
1Y
b000000111011 [
#3910000
0%
01
0N
0Y
#3920000
1%
11
b000000111100 I
1N
1Y
b000000111100 [
#3930000
0%
01
0N
0Y
#3940000
1%
11
b000000111101 I
1N
1Y
b000000111101 [
#3950000
0%
01
0N
0Y
#3960000
1%
11
b000000111110 I
1N
1Y
b000000111110 [
#3970000
0%
01
0N
0Y
#3980000
1%
11
b000000111111 I
1N
1Y
b000000111111 [
#3990000
0%
01
0N
0Y
#4000000
1%
11
b000001000000 I
1N
1Y
b000001000000 [
#4010000
0%
01
0N
0Y
#4020000
1%
11
b000001000001 I
1N
1Y
b000001000001 [
#4030000
0%
01
0N
0Y
#4040000
1%
11
b000001000010 I
1N
1Y
b000001000010 [
#4050000
0%
01
0N
0Y
#4060000
1%
11
b000001000011 I
1N
1Y
b000001000011 [
#4070000
0%
01
0N
0Y
